Kākā SSF data preparation
…
# filter out the steps in the water, which includes when the DCC layer in NA, which is the sea
ssf_data_all <- ssf_data_all %>% filter(water != 1 & !is.na(habs))

# grouping works best when it's a tibble object
ssf_data_all_tbl <- as_tibble(ssf_data_all)

# count the number of steps for each individual and step
# we can see that many steps have less than 31 (1 used step + 30 random steps)
ssf_data_all_tbl %>% dplyr::group_by(id, step_id_) %>% dplyr::summarise(n=n())

`summarise()` has grouped output by 'id'. You can override using the `.groups`
argument.

# A tibble: 9,626 × 3
# Groups:   id [10]
      id step_id_     n
   <dbl>    <dbl> <int>
 1 45505        3    28
 2 45505        4    22
 3 45505        5    30
 4 45505        6    30
 5 45505        7    30
 6 45505        8    30
 7 45505        9    27
 8 45505       10    31
 9 45505       11    25
10 45505       12    29
# ℹ 9,616 more rows
…
